<?xml version="1.0" encoding="utf-8"?>
<!-- Generator: Adobe Illustrator 16.0.0, SVG Export Plug-In . SVG Version: 6.00 Build 0)  -->
<!DOCTYPE svg PUBLIC "-//W3C//DTD SVG 1.1//EN" "http://www.w3.org/Graphics/SVG/1.1/DTD/svg11.dtd">
<svg version="1.1" id="Layer_1" focusable="false" xmlns="http://www.w3.org/2000/svg" xmlns:xlink="http://www.w3.org/1999/xlink"
	 x="0px" y="0px" width="595.279px" height="462.996px" viewBox="0 190.48 595.279 462.996"
	 enable-background="new 0 190.48 595.279 462.996" xml:space="preserve">
<path fill="#979794" d="M499.064,580.41c0,7.027-4.754,12.092-11.575,12.092c-7.027,0-11.574-5.374-11.574-12.092
	s4.547-12.092,11.574-12.092C494.31,568.318,499.064,573.692,499.064,580.41z M177.861,568.318c-7.338,0-11.575,5.374-11.575,12.092
	s4.237,12.092,11.575,12.092c6.718,0,11.265-5.064,11.265-12.092C189.022,573.692,184.578,568.318,177.861,568.318z
	 M299.293,568.008c-5.58,0-8.991,3.617-9.817,8.991h19.739C308.284,571.108,304.668,568.008,299.293,568.008z M410.701,568.318
	c-7.027,0-11.265,5.374-11.265,12.092s4.237,12.092,11.265,12.092c7.028,0,11.575-5.064,11.575-12.092
	C422.277,573.692,417.73,568.318,410.701,568.318z M520.147,595.292c0,0.31,0.31,0.517,0.31,1.137c0,0.31-0.31,0.517-0.31,1.137
	c-0.311,0.311-0.311,0.517-0.517,0.827c-0.311,0.31-0.517,0.517-1.137,0.517c-0.311,0.31-0.518,0.31-1.138,0.31
	c-0.31,0-0.517,0-1.137-0.31c-0.31,0-0.517-0.311-0.826-0.517c-0.311-0.311-0.517-0.517-0.517-0.827
	c-0.311-0.517-0.311-0.826-0.311-1.137c0-0.517,0-0.827,0.311-1.137c0-0.517,0.31-0.827,0.517-1.137
	c0.31-0.311,0.517-0.311,0.826-0.517c0.518-0.311,0.827-0.311,1.137-0.311c0.518,0,0.827,0,1.138,0.311
	c0.517,0.31,0.826,0.31,1.137,0.517C519.94,594.361,519.836,594.775,520.147,595.292z M517.873,596.738
	c0.517,0,0.517-0.31,0.826-0.31c0.311-0.31,0.311-0.517,0.311-0.827c0-0.31,0-0.517-0.311-0.826c-0.31,0-0.517-0.311-1.137-0.311
	h-1.653v3.617h0.826v-1.446h0.311l1.137,1.446h0.827L517.873,596.738L517.873,596.738z M595.28,240.087V603.87
	c0,27.387-22.219,49.606-49.606,49.606H49.607C22.22,653.477,0,631.257,0,603.87V240.087C0,212.7,22.22,190.48,49.607,190.48
	h496.066C573.061,190.48,595.28,212.7,595.28,240.087z M66.142,384.36c0,79.061,64.179,143.136,143.137,143.136
	c28.11,0,55.704-8.475,79.061-23.873c-75.341-61.285-74.823-176.931,0-238.216c-23.356-15.502-50.95-23.873-79.061-23.873
	C130.321,241.431,66.142,305.609,66.142,384.36z M297.64,496.802c72.859-56.841,72.55-167.629,0-224.78
	C225.09,329.173,224.781,440.064,297.64,496.802z M150.577,575.656c0-8.991-5.892-14.882-15.192-15.192
	c-4.754,0-9.818,1.447-13.229,6.718c-2.48-4.237-6.718-6.718-12.608-6.718c-3.927,0-7.854,1.447-10.955,5.581v-4.548h-8.475v37.929
	h8.475c0-19.532-2.583-31.211,9.302-31.211c10.541,0,8.475,10.542,8.475,31.211h8.164c0-18.912-2.584-31.211,9.301-31.211
	c10.542,0,8.475,10.335,8.475,31.211h8.475v-23.77H150.577z M196.98,561.497h-8.164v4.548c-2.791-3.411-6.718-5.581-12.092-5.581
	c-10.645,0-18.81,8.475-18.81,19.946c0,11.574,8.165,19.945,18.81,19.945c5.374,0,9.301-1.963,12.092-5.58v4.754h8.164V561.497z
	 M238.835,587.954c0-15.502-23.666-8.475-23.666-15.709c0-5.891,12.298-4.96,19.119-1.137l3.41-6.718
	c-9.715-6.304-31.211-6.2-31.211,8.475c0,14.779,23.667,8.578,23.667,15.502c0,6.512-13.952,5.994-21.393,0.827l-3.617,6.511
	C216.719,603.56,238.835,601.906,238.835,587.954L238.835,587.954z M275.42,597.565l-2.273-7.027
	c-3.927,2.17-12.608,4.547-12.608-4.237v-17.155h13.539v-7.648h-13.539v-11.574h-8.475v11.574h-7.854v7.545h7.854v17.259
	C252.064,604.49,269.943,601.183,275.42,597.565L275.42,597.565z M289.165,583.717h28.421c0-16.742-7.648-23.356-17.982-23.356
	c-10.955,0-18.81,8.165-18.81,19.946c0,21.187,23.356,24.7,34.932,14.675l-3.928-6.2
	C303.738,595.396,291.542,594.775,289.165,583.717z M350.243,561.497c-4.754-2.066-11.988-1.86-15.709,4.548v-4.548h-8.474v37.929
	h8.474v-21.393c0-11.988,9.818-10.438,13.229-8.682L350.243,561.497L350.243,561.497z M361.198,580.41
	c0-11.782,11.988-15.605,21.393-8.682l3.928-6.718c-11.988-9.404-33.795-4.237-33.795,15.503c0,20.462,23.149,24.597,33.795,15.502
	l-3.928-6.718C373.083,596.016,361.198,591.984,361.198,580.41z M430.131,561.497h-8.475v4.548
	c-8.578-11.368-30.9-4.961-30.9,14.365c0,19.843,23.149,25.526,30.9,14.365v4.754h8.475V561.497z M464.959,561.497
	c-2.48-1.24-11.368-2.997-15.709,4.548v-4.548h-8.164v37.929h8.164v-21.393c0-11.368,9.302-10.645,13.229-8.682L464.959,561.497
	L464.959,561.497z M506.608,546.099h-8.164v19.946c-8.475-11.265-30.9-5.271-30.9,14.365c0,20.049,23.253,25.423,30.9,14.365v4.754
	h8.164V546.099L506.608,546.099z M514.462,468.484v4.755h0.827v-4.755h1.964v-0.826h-4.754v0.826H514.462L514.462,468.484z
	 M521.283,596.429c0-0.517,0-1.137-0.311-1.653c-0.31-0.311-0.517-0.827-0.826-1.137c-0.311-0.311-0.827-0.517-1.137-0.827
	c-0.517,0-1.137-0.31-1.654-0.31c-0.31,0-0.826,0.31-1.446,0.31c-0.517,0.311-0.827,0.517-1.137,0.827
	c-0.517,0.31-0.827,0.826-0.827,1.137c-0.31,0.517-0.31,1.137-0.31,1.653c0,0.31,0,0.827,0.31,1.447c0,0.31,0.311,0.826,0.827,1.137
	c0.31,0.31,0.517,0.517,1.137,0.826c0.517,0.311,1.137,0.311,1.446,0.311c0.518,0,1.138,0,1.654-0.311
	c0.31-0.31,0.826-0.517,1.137-0.826c0.31-0.311,0.517-0.827,0.826-1.137C521.283,597.256,521.283,596.738,521.283,596.429z
	 M524.59,467.555h-1.446l-1.653,3.617l-1.654-3.617h-1.446v5.581h0.826v-4.237l1.654,3.617h1.137l1.446-3.617v4.237h1.137V467.555z
	 M529.138,384.36c0-78.751-64.179-142.93-143.136-142.93c-28.11,0-55.704,8.475-79.061,23.874
	c74.513,61.285,75.649,177.241,0,238.215c23.356,15.502,51.156,23.873,79.061,23.873
	C464.959,527.496,529.138,463.421,529.138,384.36z"/>
</svg>
